Problemset 1
================
Kristopher Nichols
April 16, 2018"

Libraries

Load Data

    ## # A tibble: 51,344 x 15
    ##    `Inspection ID`                           `DBA Name` `License #`
    ##              <int>                                <chr>       <int>
    ##  1         2159838                                 IHOP       50037
    ##  2         2159999                        THE BLANCHARD     2373807
    ##  3         2159995     WENDY'S OLD FASHIONED HAMBURGERS     2314101
    ##  4         2159984                     SIMON TACOS INC.     2496221
    ##  5         2159980            BROWNSTONE TAVERN & GRILL       39851
    ##  6         2159926               STEINGOLD'S OF CHICAGO     2543071
    ##  7         2159779                      MARISCOS ALMADA     2483049
    ##  8         2159977              RESTAURANT EL ASADOR II     2179622
    ##  9         2159876 MONTESSORI ACADEMY OF CHICAGO I, LLC     2215936
    ## 10         2159874 MONTESSORI ACADEMY OF CHICAGO I, LLC     2215935
    ## # ... with 51,334 more rows, and 12 more variables: `Facility Type` <chr>,
    ## #   Risk <chr>, Zip <int>, `Inspection Date` <chr>, `Inspection
    ## #   Type` <chr>, Results <chr>, Violations <chr>, Year <chr>, Pass <dbl>,
    ## #   Fail <dbl>, ResultsCoded <dbl>, Risknumb <dbl>
…
